{
  "catchedPokemons" : [ {
    "type" : "waterPokemon",
    "name" : "Seel",
    "colour" : "light blue"
  }, {
    "type" : "firePokemon",
    "name" : "Charmander",
    "colour" : "orange"
  }, {
    "type" : "firePokemon",
    "name" : "Charmander",
    "colour" : "orange"
  }, {
    "type" : "waterPokemon",
    "name" : "Seel",
    "colour" : "light blue"
  }, {
    "type" : "firePokemon",
    "name" : "Ponyta",
    "colour" : "yellow"
  }, {
    "type" : "firePokemon",
    "name" : "Charmander",
    "colour" : "orange"
  }, {
    "type" : "firePokemon",
    "name" : "Charizar",
    "colour" : "burning red"
  }, {
    "type" : "firePokemon",
    "name" : "Ponyta",
    "colour" : "yellow"
  }, {
    "type" : "waterPokemon",
    "name" : "Seel",
    "colour" : "light blue"
  } ],
  "numberOfPokeBalls" : 0
}